EESchema Schematic File Version 4
EELAYER 30 0
EELAYER END
$Descr A4 11693 8268
encoding utf-8
Sheet 1 2
Title "RF-Mixer based on RFFC2071"
Date ""
Rev ""
Comp ""
Comment1 "CERN Open Hardware Licence v1.2 "
Comment2 ""
Comment3 ""
Comment4 ""
$EndDescr
$Comp
L Connector:Conn_Coaxial J?
U 1 1 5E67D487
P 7780 3005
AR Path="/5E670BE7/5E67D487" Ref="J?"  Part="1" 
AR Path="/5E67D487" Ref="J4"  Part="1" 
F 0 "J4" H 7870 3055 50  0000 L CNN
F 1 "Conn_Coaxial" H 7860 2965 50  0000 L CNN
F 2 "Connector_Coaxial:SMA_Amphenol_132289_EdgeMount" H 7780 3005 50  0001 C CNN
F 3 " ~" H 7780 3005 50  0001 C CNN
F 4 "132289" H 7780 3005 50  0001 C CNN "Mnf."
	1    7780 3005
	1    0    0    -1  
$EndComp
$Comp
L power:GND #PWR?
U 1 1 5E67D48D
P 7780 3205
AR Path="/5E670BE7/5E67D48D" Ref="#PWR?"  Part="1" 
AR Path="/5E67D48D" Ref="#PWR0101"  Part="1" 
F 0 "#PWR0101" H 7780 2955 50  0001 C CNN
F 1 "GND" H 7785 3032 50  0000 C CNN
F 2 "" H 7780 3205 50  0001 C CNN
F 3 "" H 7780 3205 50  0001 C CNN
	1    7780 3205
	1    0    0    -1  
$EndComp
Text Notes 6675 3140 0    50   ~ 0
RF-TX, 2200-2300MHz
$Comp
L Connector:Conn_Coaxial J?
U 1 1 5E68EB0E
P 6490 3135
AR Path="/5E670BE7/5E68EB0E" Ref="J?"  Part="1" 
AR Path="/5E68EB0E" Ref="J2"  Part="1" 
F 0 "J2" H 6580 3165 50  0000 L CNN
F 1 "Conn_Coaxial" H 6575 3095 50  0000 L CNN
F 2 "Connector_Coaxial:SMA_Amphenol_132289_EdgeMount" H 6490 3135 50  0001 C CNN
F 3 " ~" H 6490 3135 50  0001 C CNN
F 4 "132289" H 6490 3135 50  0001 C CNN "Mnf."
	1    6490 3135
	1    0    0    -1  
$EndComp
$Comp
L power:GND #PWR?
U 1 1 5E68EB14
P 6490 3335
AR Path="/5E670BE7/5E68EB14" Ref="#PWR?"  Part="1" 
AR Path="/5E68EB14" Ref="#PWR0102"  Part="1" 
F 0 "#PWR0102" H 6490 3085 50  0001 C CNN
F 1 "GND" H 6495 3162 50  0000 C CNN
F 2 "" H 6490 3335 50  0001 C CNN
F 3 "" H 6490 3335 50  0001 C CNN
	1    6490 3335
	1    0    0    -1  
$EndComp
Text Notes 7965 2995 0    50   ~ 0
IF-TX, 2400MHz
Text Notes 7975 3535 0    50   ~ 0
RF-RX,  2000-2120MHz\n
$Comp
L Connector:Conn_Coaxial J?
U 1 1 5E6AD1E1
P 7805 3540
AR Path="/5E670BE7/5E6AD1E1" Ref="J?"  Part="1" 
AR Path="/5E6AD1E1" Ref="J1"  Part="1" 
F 0 "J1" H 7930 3585 50  0000 C CNN
F 1 "Conn_Coaxial" H 8125 3495 50  0000 C CNN
F 2 "Connector_Coaxial:SMA_Amphenol_132289_EdgeMount" H 7805 3540 50  0001 C CNN
F 3 " ~" H 7805 3540 50  0001 C CNN
F 4 "132289" H 7805 3540 50  0001 C CNN "Mnf."
	1    7805 3540
	1    0    0    -1  
$EndComp
$Comp
L power:GND #PWR?
U 1 1 5E6AD1E8
P 6490 3890
AR Path="/5E670BE7/5E6AD1E8" Ref="#PWR?"  Part="1" 
AR Path="/5E6AD1E8" Ref="#PWR0103"  Part="1" 
F 0 "#PWR0103" H 6490 3640 50  0001 C CNN
F 1 "GND" H 6495 3717 50  0000 C CNN
F 2 "" H 6490 3890 50  0001 C CNN
F 3 "" H 6490 3890 50  0001 C CNN
	1    6490 3890
	1    0    0    -1  
$EndComp
Text Notes 6665 3665 0    50   ~ 0
IF-RX, 2400MHz
$Comp
L power:GND #PWR?
U 1 1 5E6B6E65
P 7805 3740
AR Path="/5E670BE7/5E6B6E65" Ref="#PWR?"  Part="1" 
AR Path="/5E6B6E65" Ref="#PWR0104"  Part="1" 
F 0 "#PWR0104" H 7805 3490 50  0001 C CNN
F 1 "GND" H 7810 3567 50  0000 C CNN
F 2 "" H 7805 3740 50  0001 C CNN
F 3 "" H 7805 3740 50  0001 C CNN
	1    7805 3740
	1    0    0    -1  
$EndComp
$Comp
L Connector:Conn_Coaxial J?
U 1 1 5E6B6E6C
P 6490 3690
AR Path="/5E670BE7/5E6B6E6C" Ref="J?"  Part="1" 
AR Path="/5E6B6E6C" Ref="J3"  Part="1" 
F 0 "J3" H 6620 3750 50  0000 C CNN
F 1 "Conn_Coaxial" H 6820 3665 50  0000 C CNN
F 2 "Connector_Coaxial:SMA_Amphenol_132289_EdgeMount" H 6490 3690 50  0001 C CNN
F 3 " ~" H 6490 3690 50  0001 C CNN
F 4 "132289" H 6490 3690 50  0001 C CNN "Mnf."
	1    6490 3690
	1    0    0    -1  
$EndComp
Text Label 3320 3320 2    50   ~ 0
ENX
Text Label 4020 3320 0    50   ~ 0
SCLK
Text Label 3320 3220 2    50   ~ 0
SDA
Text Label 4020 3420 0    50   ~ 0
MODE
Text Label 4020 3220 0    50   ~ 0
ENBL
$Comp
L power:GND #PWR?
U 1 1 5E6EAA34
P 4020 3520
AR Path="/5E670BE7/5E6EAA34" Ref="#PWR?"  Part="1" 
AR Path="/5E6EAA34" Ref="#PWR0105"  Part="1" 
F 0 "#PWR0105" H 4020 3270 50  0001 C CNN
F 1 "GND" H 4025 3347 50  0000 C CNN
F 2 "" H 4020 3520 50  0001 C CNN
F 3 "" H 4020 3520 50  0001 C CNN
	1    4020 3520
	1    0    0    -1  
$EndComp
$Comp
L Connector_Generic:Conn_02x05_Odd_Even J?
U 1 1 5E6EAA3B
P 3620 3320
AR Path="/5E670BE7/5E6EAA3B" Ref="J?"  Part="1" 
AR Path="/5E6EAA3B" Ref="J5"  Part="1" 
F 0 "J5" H 3670 3737 50  0000 C CNN
F 1 "Conn_02x05_Odd_Even" H 3670 3646 50  0000 C CNN
F 2 "Connector_Hirose:Hirose_DF11-10DP-2DSA_2x05_P2.00mm_Vertical" H 3620 3320 50  0001 C CNN
F 3 "~" H 3620 3320 50  0001 C CNN
F 4 "DF11-10DP-2DSA" H 3620 3320 50  0001 C CNN "Mnf."
	1    3620 3320
	1    0    0    -1  
$EndComp
Wire Wire Line
	3420 3220 3320 3220
Wire Wire Line
	3420 3320 3320 3320
Wire Wire Line
	3920 3220 4020 3220
Wire Wire Line
	3920 3320 4020 3320
Wire Wire Line
	3420 3420 3320 3420
Wire Wire Line
	3920 3520 4020 3520
Wire Wire Line
	3920 3420 4020 3420
Wire Wire Line
	3045 3520 3420 3520
Wire Wire Line
	3920 3120 4020 3120
Wire Wire Line
	3420 3120 3320 3120
Text Label 4020 3120 0    50   ~ 0
LOCK-DO
Text Label 3320 3120 2    50   ~ 0
FM
$Sheet
S 5145 2920 770  845 
U 5E670BE7
F0 "mixer" 50
F1 "mixer.sch" 50
F2 "IF-TX" I R 5915 3005 50 
F3 "RF-TX" I R 5915 3135 50 
F4 "RF-RX" I R 5915 3540 50 
F5 "IF-RX" I R 5915 3690 50 
F6 "VDD" I L 5145 2965 50 
F7 "LOCK-DO" I L 5145 3100 50 
F8 "RST" I L 5145 3170 50 
F9 "ENX" I L 5145 3245 50 
F10 "SCLK" I L 5145 3315 50 
F11 "SDA" I L 5145 3385 50 
F12 "MODE" I L 5145 3455 50 
F13 "ENBL" I L 5145 3525 50 
F14 "FM" I L 5145 3595 50 
F15 "GND" I L 5145 3720 50 
$EndSheet
$Comp
L power:GND #PWR?
U 1 1 5E72E954
P 4925 3785
AR Path="/5E670BE7/5E72E954" Ref="#PWR?"  Part="1" 
AR Path="/5E72E954" Ref="#PWR0106"  Part="1" 
F 0 "#PWR0106" H 4925 3535 50  0001 C CNN
F 1 "GND" H 4930 3612 50  0000 C CNN
F 2 "" H 4925 3785 50  0001 C CNN
F 3 "" H 4925 3785 50  0001 C CNN
	1    4925 3785
	1    0    0    -1  
$EndComp
Wire Wire Line
	5145 3720 4925 3720
Wire Wire Line
	4925 3720 4925 3785
$Comp
L power:+3V3 #PWR0107
U 1 1 5E72F660
P 4925 2880
F 0 "#PWR0107" H 4925 2730 50  0001 C CNN
F 1 "+3V3" H 4940 3053 50  0000 C CNN
F 2 "" H 4925 2880 50  0001 C CNN
F 3 "" H 4925 2880 50  0001 C CNN
	1    4925 2880
	1    0    0    -1  
$EndComp
Wire Wire Line
	4925 2880 4925 2965
Wire Wire Line
	4925 2965 5145 2965
$Comp
L power:+3V3 #PWR0108
U 1 1 5E730C80
P 3045 3445
F 0 "#PWR0108" H 3045 3295 50  0001 C CNN
F 1 "+3V3" H 3060 3618 50  0000 C CNN
F 2 "" H 3045 3445 50  0001 C CNN
F 3 "" H 3045 3445 50  0001 C CNN
	1    3045 3445
	1    0    0    -1  
$EndComp
Wire Wire Line
	3045 3520 3045 3445
Wire Wire Line
	5915 3135 6290 3135
Wire Wire Line
	5915 3005 7580 3005
Wire Wire Line
	5915 3690 6290 3690
Wire Wire Line
	5915 3540 7605 3540
Wire Wire Line
	5145 3100 5055 3100
Wire Wire Line
	5145 3170 5055 3170
Wire Wire Line
	5145 3245 5055 3245
Wire Wire Line
	5145 3315 5055 3315
Wire Wire Line
	5145 3385 5055 3385
Wire Wire Line
	5145 3455 5055 3455
Wire Wire Line
	5145 3525 5055 3525
Wire Wire Line
	5145 3595 5055 3595
Text Label 5055 3100 2    50   ~ 0
LOCK-DO
Text Label 3320 3420 2    50   ~ 0
RST
Text Label 5055 3170 2    50   ~ 0
RST
Text Label 5055 3245 2    50   ~ 0
ENX
Text Label 5055 3315 2    50   ~ 0
SCLK
Text Label 5055 3385 2    50   ~ 0
SDA
Text Label 5055 3455 2    50   ~ 0
MODE
Text Label 5055 3525 2    50   ~ 0
ENBL
Text Label 5055 3595 2    50   ~ 0
FM
$EndSCHEMATC
